{
    "featureLabels": [
      "Response",
      "Recency",
      "MntSpend",
      "NumWebPurchases",
      "NumCatalogPurchases",
      "NumStorePurchases",
      "NumDealsPurchases",
      "Grad",
      "Post grad",
      "Under grad",
      "Kids",
      "MntSpend",
      "average income",
      "high income",
      "low income",
      "middle aged",
      "old adulthood",
      "young adult"
    ],
    "predictionClasses": {
      "Did complain": 1,
      "Did not complain": 1
    },
    "problemType": "classification"
  }
